110092 892846 525
768505 873182 525
137780 652739 509
427601 534952 470
53891 179205 383
441408 984319 525
97007 806568 509
433338 543825 470
194652 212867 373
440677 917631 525
872792 885518 432
217394 999982 525
98729 528227 470
167943 484787 449
248326 883636 525
379755 869599 525
17178 207417 383
298891 419832 449
351409 402483 436
452683 772301 509
87274 217184 386
213322 552205 470
141758 187314 383
487885 656710 509
76175 730765 509
158648 178497 370
381787 383726 361
746046 958465 525
248754 343432 407
771156 887109 525
139173 635215 509
131558 657577 509
143663 589169 470
51848 408461 443
586773 695537 509
842092 936673 476
560764 981300 525
330608 646516 509
219849 601675 470
677794 845318 525
777111 936819 525
449614 706789 509
725355 976479 525
439433 851318 525
12577 582499 470
923865 970855 507
189015 602802 470
407449 845704 525
589407 967775 525
451304 689657 509
636974 857871 525
445021 702860 509
709594 711090 380
146737 861915 525
565485 953860 525
46889 685391 509
284958 504480 449
738609 899291 525
206966 371569 443
291786 368301 441
114676 865187 525
595799 799485 509
486210 678894 509
100180 960726 525
292697 783529 509
575097 927683 525
377358 664660 509
42085 194024 383
311869 452352 449
357545 647264 509
739869 879908 525
286422 323166 389
826837 983298 525
790041 871241 525
358785 649407 509
411790 807729 509
40028 177312 383
199122 490840 449
318160 687046 509
280447 585687 470
690050 856438 525
339522 722678 509
59092 431399 449
845930 888876 445
705533 954281 525
563316 909531 525
288995 931946 525
846633 910879 476
757424 971478 525
355004 917146 525
826122 969645 525
92510 570201 470
116930 904346 525
254292 596263 470
456364 782906 509
282484 986073 525
5951 750597 509
449744 770290 509
292826 743050 509
148642 535844 470
347739 926421 525
57787 477010 449
327614 943426 525
735778 956836 525
891823 993306 507
805719 914369 525
141058 196755 383
46780 495647 449
410359 555907 470
438679 504724 444
274214 528646 470
691712 701614 442
315985 454388 449
425196 712591 509
415345 538127 470
150549 282371 443
88468 772436 509
275747 652605 509
37391 785141 509
103194 282439 443
92091 741740 509
151262 174443 383
186714 923428 525
559063 953643 525
357431 755758 509
810821 999945 525
54480 378398 443
340525 577235 470
283791 429911 449
344005 785852 509
264047 300117 407
454881 510701 444
314282 571855 470
168642 235345 443
228718 458697 449
814537 853141 525
95064 457111 449
168961 874797 525
310489 701846 509
244282 356094 441
231473 408824 441
60647 274232 443
294939 553918 470
571303 896278 525
873306 879506 432
220820 474351 449
151226 458708 449
429133 530248 470
10021 839583 525
642254 812400 504
168512 450501 449
162033 793548 509
3921 890280 525
64178 99285 351
211363 631402 509
152241 456261 449
474108 972562 525
420699 612232 470
187797 693583 509
147712 812968 509
685868 903503 525
170250 825045 509
332571 503343 449
448377 562455 470
26458 663216 509
61318 569544 470
705055 922389 525
390163 800479 509
14730 29915 308
342725 764063 509
127716 687946 509
107373 771386 509
21567 74596 340
36266 360409 443
305027 581647 470
640497 863080 525
146408 661696 509
64188 699926 509
325748 741499 509
113686 286046 443
102390 746458 509
376652 689599 509
438988 721978 509
286381 647644 509
218753 629099 509
322804 523603 470
207621 624965 470
275850 777920 509
498127 662291 509
241961 554055 470
377224 850268 525
327499 977781 525
676750 794340 504
127109 775168 509
305300 780620 509
792115 889957 525
349789 650198 509
243129 847267 525
705162 977695 525
402321 641910 509
548581 704820 509
182995 878788 525
487122 902381 525
306949 782194 509
229515 638681 509
640489 757910 504
234385 637589 509
189608 722741 509
412667 726974 509
326540 734099 509
121624 328232 443
443604 528412 470
394161 711736 509
563519 823899 509
291444 433485 449
81142 482225 449
154173 460185 449
83620 686501 509
901823 965924 507
110818 712567 509
556644 689701 509
155245 786695 509
306013 565363 470
278156 423748 449
45695 104725 351
443066 894588 525
11539 615181 470
155696 846504 525
367107 785767 509
446106 467596 444
85283 436052 449
34210 764026 509
410534 989499 525
203579 337382 443
244745 812878 509
823438 867852 525
117591 187460 383
585189 827207 509
663310 786132 504
537281 958247 525
