357329 781341 509
424827 758070 509
823749 997934 525
598187 889324 525
210539 674692 509
277746 689847 509
865476 956282 507
835295 990509 525
750541 812469 468
182871 840901 525
504717 872839 525
549587 952809 525
857438 908848 445
601336 833879 509
23980 472643 449
560783 673971 509
639888 758160 504
277961 638812 509
363064 445610 449
857458 889640 445
673088 762377 504
292161 438489 449
112463 885008 525
715328 807068 468
18350 971970 525
512096 996711 525
694396 935458 525
648902 674348 442
79868 683640 509
324106 655382 509
236139 946575 525
962517 998051 458
468965 781122 509
880674 934165 476
695923 950728 525
414372 763036 509
510593 902527 525
280807 925589 525
224407 342488 443
381128 947208 525
71295 92499 351
971713 983909 427
637161 680042 442
388520 841303 525
524854 679138 509
607802 875706 525
136827 470158 449
975195 990428 427
270966 393580 441
14239 34901 311
707377 940023 525
493853 731769 509
874438 976057 507
128102 999752 525
130807 746929 509
691872 780389 504
683144 958817 525
489734 753376 509
974828 980750 383
463280 504850 426
537626 613401 452
187182 588107 470
466930 542124 470
359181 999819 525
842619 934105 476
144136 637033 509
76991 528267 470
104766 569959 470
527584 913938 525
131606 516020 470
436185 871193 525
122 677710 509
831658 989015 525
449701 939080 525
880703 931324 476
321568 672172 509
190310 210340 373
150279 640193 509
354487 931758 525
311638 330818 384
545890 758670 509
453428 737807 509
19643 906845 525
478589 789985 509
943779 952965 414
571339 826451 509
156342 635538 509
977275 985683 427
608995 740878 509
261006 535676 470
156684 369430 443
618009 732350 509
821959 916918 525
940405 961754 414
717685 841287 525
123326 427767 449
39600 513409 470
289544 462852 449
656566 883104 525
286743 425919 449
537889 691282 509
976990 991467 427
104826 390140 443
540098 900651 525
216773 756262 509
891621 949595 507
892998 978006 507
265187 949109 525
66802 519949 470
95430 654736 509
5302 743726 509
297736 492048 449
358143 793633 509
246572 560917 470
167379 378167 443
92846 364164 443
28024 503824 449
606840 664999 509
961936 988152 458
382373 555987 470
557911 619666 447
940372 999134 458
501233 540793 470
592500 872949 525
813159 975027 525
419892 954359 525
10730 595350 470
860010 960219 507
308226 389557 441
649327 902293 525
932396 983190 507
100391 618419 470
848706 906352 445
714213 942096 525
768807 953816 525
250703 386283 441
204045 345355 443
802003 839250 525
492691 585113 470
662704 743850 504
641895 681028 442
903436 981450 507
978568 979129 352
436108 994300 525
647771 829146 504
688951 749976 504
433341 728583 509
616649 747998 509
864324 910122 476
250792 935127 525
299503 910937 525
955286 990116 458
626047 904006 525
308811 755199 509
80695 379916 443
685704 721028 504
369744 866493 525
215570 567379 470
536585 937075 525
596684 930313 525
963752 992775 458
916153 933120 476
843913 962535 507
896198 904922 401
799535 929848 525
132875 178740 383
525782 595915 452
254630 979384 525
906229 937524 476
405237 728335 509
320925 339017 384
470232 613139 470
584273 880026 525
782888 793449 437
688392 878653 525
669800 993548 525
274530 512124 470
516214 862499 525
864120 975664 507
430594 884124 525
699343 869469 525
17295 232082 443
8966 818006 509
294855 870810 525
141962 823860 509
881569 943016 507
361242 661780 509
577146 862560 525
72671 731531 509
486656 501697 426
181079 536895 470
644420 947817 525
895619 944673 507
684966 914796 525
904142 974225 507
899519 941748 507
659353 672747 442
579212 736121 509
713863 901509 525
709667 939464 525
477553 738907 509
988126 998584 440
388428 754613 509
959798 969007 414
229191 892358 525
638452 936497 525
167858 533925 470
262816 499905 449
117636 498828 449
335019 979845 525
241760 907108 525
766344 990909 525
916636 945099 507
693655 831655 504
800540 858443 525
543247 852858 525
310371 766967 509
863923 890058 445
522597 753315 509
583711 805392 509
554839 975281 525
820808 947012 525
2334 701506 509
643168 742039 504
724872 853999 525
750338 825263 468
555952 583952 434
949683 993348 458
771626 987188 525
813642 872314 525
461138 893703 525
554569 714963 509
973147 983817 427
983923 987038 427
570679 616028 447
10668 783856 509
383541 994684 525
261258 566085 470
601055 718455 509
950673 996781 458
725332 839724 525
599917 977101 525
319022 543154 470
578193 590315 434
374014 556796 470
683149 962870 525
594067 603279 403
837243 924226 525
549390 957461 525
447716 537216 470
